custom_2bit_adder/waveform.vcd
$date
     Feb 19, 2025       21:55:16
$end

$version
 SystemC 2.3.3-Accellera --- Dec 28 2022 21:47:10
$end

$timescale
     1 ps
$end

$scope module SystemC $end
$var wire    1  aaaaa  a0       $end
$var wire    1  aaaab  a1       $end
$var wire    1  aaaac  b0       $end
$var wire    1  aaaad  b1       $end
$var wire    1  aaaae  cin0       $end
$var wire    1  aaaaf  SUM0       $end
$var wire    1  aaaag  SUM1       $end
$var wire    1  aaaah  COUT       $end
$upscope $end
$enddefinitions  $end

$comment
All initial values are dumped below at time 0 sec = 0 timescale units.
$end

$dumpvars
0aaaaa
0aaaab
0aaaac
0aaaad
0aaaae
0aaaaf
0aaaag
0aaaah
$end

#5000
1aaaae
1aaaaf

#10000
1aaaad
0aaaae
0aaaaf
1aaaag

#15000
1aaaae
1aaaaf

#20000
1aaaac
0aaaad
0aaaae
0aaaag

#25000
1aaaae
0aaaaf
1aaaag

#30000
1aaaad
0aaaae
1aaaaf

#35000
1aaaae
0aaaaf
0aaaag
1aaaah

#40000
1aaaab
0aaaac
0aaaad
0aaaae
1aaaag
0aaaah

#45000
1aaaae
1aaaaf

#50000
1aaaad
0aaaae
0aaaaf
0aaaag
1aaaah

#55000
1aaaae
1aaaaf

#60000
1aaaac
0aaaad
0aaaae
1aaaag
0aaaah

#65000
1aaaae
0aaaaf
0aaaag
1aaaah

#70000
1aaaad
0aaaae
1aaaaf

#75000
1aaaae
0aaaaf
1aaaag

#80000
1aaaaa
0aaaab
0aaaac
0aaaad
0aaaae
1aaaaf
0aaaag
0aaaah

#85000
1aaaae
0aaaaf
1aaaag

#90000
1aaaad
0aaaae
1aaaaf

#95000
1aaaae
0aaaaf
0aaaag
1aaaah

#100000
1aaaac
0aaaad
0aaaae
1aaaag
0aaaah

#105000
1aaaae
1aaaaf

#110000
1aaaad
0aaaae
0aaaaf
0aaaag
1aaaah

#115000
1aaaae
1aaaaf

#120000
1aaaab
0aaaac
0aaaad
0aaaae
1aaaag
0aaaah

#125000
1aaaae
0aaaaf
0aaaag
1aaaah

#130000
1aaaad
0aaaae
1aaaaf

#135000
1aaaae
0aaaaf
1aaaag

#140000
1aaaac
0aaaad
0aaaae
0aaaag

#145000
1aaaae
1aaaaf

#150000
1aaaad
0aaaae
0aaaaf
1aaaag

#155000
1aaaae
1aaaaf

