4bitcnt/counter_waveform.vcd
$date
     Feb 18, 2025       17:14:30
$end

$version
 SystemC 2.3.3-Accellera --- Dec 28 2022 21:47:10
$end

$timescale
     1 ps
$end

$scope module SystemC $end
$var wire    1  aaaaa  clk       $end
$var wire    1  aaaab  reset       $end
$var wire    1  aaaac  enable       $end
$var wire    4  aaaad  counter_out [3:0]  $end
$upscope $end
$enddefinitions  $end

$comment
All initial values are dumped below at time 0 sec = 0 timescale units.
$end

$dumpvars
1aaaaa
0aaaab
0aaaac
b0 aaaad
$end

#5000
0aaaaa

#10000
1aaaaa
1aaaab

#15000
0aaaaa

#20000
1aaaaa
0aaaab
1aaaac
b1 aaaad

#25000
0aaaaa

#30000
1aaaaa
b10 aaaad

#35000
0aaaaa

#40000
1aaaaa
b11 aaaad

#45000
0aaaaa

#50000
1aaaaa
b100 aaaad

#55000
0aaaaa

#60000
1aaaaa
b101 aaaad

#65000
0aaaaa

#70000
1aaaaa
b110 aaaad

#75000
0aaaaa

#80000
1aaaaa
b111 aaaad

#85000
0aaaaa

#90000
1aaaaa
b1000 aaaad

#95000
0aaaaa

#100000
1aaaaa
b1001 aaaad

#105000
0aaaaa

#110000
1aaaaa
b1010 aaaad

#115000
0aaaaa

#120000
1aaaaa
b1011 aaaad

#125000
0aaaaa

#130000
1aaaaa
b1100 aaaad

#135000
0aaaaa

#140000
1aaaaa
b1101 aaaad

#145000
0aaaaa

#150000
1aaaaa
b1110 aaaad

#155000
0aaaaa

#160000
1aaaaa
b1111 aaaad

#165000
0aaaaa

#170000
1aaaaa
b0 aaaad

#175000
0aaaaa

#180000
1aaaaa
b1 aaaad

#185000
0aaaaa

#190000
1aaaaa
b10 aaaad

#195000
0aaaaa

#200000
1aaaaa
b11 aaaad

#205000
0aaaaa

#210000
1aaaaa
b100 aaaad

#215000
0aaaaa

#220000
1aaaaa
b101 aaaad

#225000
0aaaaa

#230000
1aaaaa
b110 aaaad

#235000
0aaaaa

#240000
1aaaaa
b111 aaaad

#245000
0aaaaa

#250000
1aaaaa
b1000 aaaad

#255000
0aaaaa

#260000
1aaaaa
b1001 aaaad

#265000
0aaaaa

#270000
1aaaaa
b1010 aaaad

#275000
0aaaaa

#280000
1aaaaa
b1011 aaaad

#285000
0aaaaa

#290000
1aaaaa
b1100 aaaad

#295000
0aaaaa

#300000
1aaaaa
b1101 aaaad

#305000
0aaaaa

#310000
1aaaaa
b1110 aaaad

#315000
0aaaaa

#320000
1aaaaa
b1111 aaaad

#325000
0aaaaa

#330000
1aaaaa
b0 aaaad

#335000
0aaaaa

#340000
1aaaaa
b1 aaaad

#345000
0aaaaa

#350000
1aaaaa
b10 aaaad

#355000
0aaaaa

#360000
1aaaaa
b11 aaaad

#365000
0aaaaa

#370000
1aaaaa
b100 aaaad

#375000
0aaaaa

#380000
1aaaaa
b101 aaaad

#385000
0aaaaa

#390000
1aaaaa
b110 aaaad

#395000
0aaaaa

#400000
1aaaaa
b111 aaaad

#405000
0aaaaa

#410000
1aaaaa
b1000 aaaad

#415000
0aaaaa

#420000
1aaaaa
0aaaac

