can_bus_model/waveform.vcd
$date
     Feb 28, 2025       03:22:19
$end

$version
 SystemC 2.3.1-Accellera --- Feb 26 2025 23:30:23
$end

$timescale
     1 ps
$end

$scope module SystemC $end
$var wire    1  aaaaa  access_request_0       $end
$var wire    1  aaaab  access_granted_0       $end
$var wire   32  aaaac  rx_id_0 [31:0]  $end
$var wire   32  aaaad  rx_data_0 [31:0]  $end
$var wire    1  aaaae  access_request_1       $end
$var wire    1  aaaaf  access_granted_1       $end
$var wire   32  aaaag  rx_id_1 [31:0]  $end
$var wire   32  aaaah  rx_data_1 [31:0]  $end
$var wire   32  aaaai  tx_id [31:0]  $end
$var wire   32  aaaaj  tx_data [31:0]  $end
$var wire    1  aaaak  bus_transmission       $end
$var wire    1  aaaal  clock       $end
$upscope $end
$enddefinitions  $end

$comment
All initial values are dumped below at time 0 sec = 0 timescale units.
$end

$dumpvars
0aaaaa
0aaaab
b0 aaaac
b0 aaaad
0aaaae
0aaaaf
b0 aaaag
b0 aaaah
b0 aaaai
b0 aaaaj
0aaaak
1aaaal
$end

#5000
0aaaal

#10000
1aaaal

#15000
0aaaal

#20000
1aaaal

#25000
0aaaal

#30000
1aaaaa
b1000011 aaaac
b1010101111001101 aaaad
1aaaae
b10000010 aaaag
b1111001111100101 aaaah
1aaaal

#35000
0aaaal

#40000
0aaaaa
1aaaab
b0 aaaac
b0 aaaad
0aaaae
b0 aaaag
b0 aaaah
b1000011 aaaai
b1010101111001101 aaaaj
1aaaak
1aaaal

#45000
0aaaal

#50000
0aaaab
b0 aaaai
b0 aaaaj
0aaaak
1aaaal

#55000
0aaaal

#60000
1aaaaa
b1000011 aaaac
b1010101111001101 aaaad
1aaaae
b10000010 aaaag
b1111001111100101 aaaah
1aaaal

#65000
0aaaal

#70000
0aaaaa
1aaaab
b0 aaaac
b0 aaaad
0aaaae
b0 aaaag
b0 aaaah
b1000011 aaaai
b1010101111001101 aaaaj
1aaaak
1aaaal

#75000
0aaaal

#80000
0aaaab
b0 aaaai
b0 aaaaj
0aaaak
1aaaal

#85000
0aaaal

#90000
1aaaaa
b1000011 aaaac
b1010101111001101 aaaad
1aaaae
b10000010 aaaag
b1111001111100101 aaaah
1aaaal

#95000
0aaaal

#100000
0aaaaa
1aaaab
b0 aaaac
b0 aaaad
0aaaae
b0 aaaag
b0 aaaah
b1000011 aaaai
b1010101111001101 aaaaj
1aaaak
1aaaal

#105000
0aaaal

#110000
0aaaab
b0 aaaai
b0 aaaaj
0aaaak
1aaaal

#115000
0aaaal

#120000
1aaaaa
b1000011 aaaac
b1010101111001101 aaaad
1aaaae
b10000010 aaaag
b1111001111100101 aaaah
1aaaal

#125000
0aaaal

#130000
0aaaaa
1aaaab
b0 aaaac
b0 aaaad
0aaaae
b0 aaaag
b0 aaaah
b1000011 aaaai
b1010101111001101 aaaaj
1aaaak
1aaaal

#135000
0aaaal

#140000
0aaaab
b0 aaaai
b0 aaaaj
0aaaak
1aaaal

#145000
0aaaal

#150000
1aaaaa
b1000011 aaaac
b1010101111001101 aaaad
1aaaae
b10000010 aaaag
b1111001111100101 aaaah
1aaaal

#155000
0aaaal

#160000
0aaaaa
1aaaab
b0 aaaac
b0 aaaad
0aaaae
b0 aaaag
b0 aaaah
b1000011 aaaai
b1010101111001101 aaaaj
1aaaak
1aaaal

#165000
0aaaal

#170000
0aaaab
b0 aaaai
b0 aaaaj
0aaaak
1aaaal

#175000
0aaaal

#180000
1aaaaa
b1000011 aaaac
b1010101111001101 aaaad
1aaaae
b10000010 aaaag
b1111001111100101 aaaah
1aaaal

#185000
0aaaal

#190000
0aaaaa
1aaaab
b0 aaaac
b0 aaaad
0aaaae
b0 aaaag
b0 aaaah
b1000011 aaaai
b1010101111001101 aaaaj
1aaaak
1aaaal

#195000
0aaaal

#200000
0aaaab
b0 aaaai
b0 aaaaj
0aaaak
1aaaal

#205000
0aaaal

#210000
1aaaaa
b1000011 aaaac
b1010101111001101 aaaad
1aaaae
b10000010 aaaag
b1111001111100101 aaaah
1aaaal

#215000
0aaaal

#220000
0aaaaa
1aaaab
b0 aaaac
b0 aaaad
0aaaae
b0 aaaag
b0 aaaah
b1000011 aaaai
b1010101111001101 aaaaj
1aaaak
1aaaal

#225000
0aaaal

#230000
0aaaab
b0 aaaai
b0 aaaaj
0aaaak
1aaaal

#235000
0aaaal

#240000
1aaaaa
b1000011 aaaac
b1010101111001101 aaaad
1aaaae
b10000010 aaaag
b1111001111100101 aaaah
1aaaal

#245000
0aaaal

#250000
0aaaaa
1aaaab
b0 aaaac
b0 aaaad
0aaaae
b0 aaaag
b0 aaaah
b1000011 aaaai
b1010101111001101 aaaaj
1aaaak
1aaaal

#255000
0aaaal

#260000
0aaaab
b0 aaaai
b0 aaaaj
0aaaak
1aaaal

#265000
0aaaal

#270000
1aaaaa
b1000011 aaaac
b1010101111001101 aaaad
1aaaae
b10000010 aaaag
b1111001111100101 aaaah
1aaaal

#275000
0aaaal

#280000
0aaaaa
1aaaab
b0 aaaac
b0 aaaad
0aaaae
b0 aaaag
b0 aaaah
b1000011 aaaai
b1010101111001101 aaaaj
1aaaak
1aaaal

#285000
0aaaal

#290000
0aaaab
b0 aaaai
b0 aaaaj
0aaaak
1aaaal

#295000
0aaaal

#300000
1aaaaa
b1000011 aaaac
b1010101111001101 aaaad
1aaaae
b10000010 aaaag
b1111001111100101 aaaah
1aaaal

#305000
0aaaal

#310000
0aaaaa
1aaaab
b0 aaaac
b0 aaaad
0aaaae
b0 aaaag
b0 aaaah
b1000011 aaaai
b1010101111001101 aaaaj
1aaaak
1aaaal

#315000
0aaaal

#320000
0aaaab
b0 aaaai
b0 aaaaj
0aaaak
1aaaal

#325000
0aaaal

#330000
1aaaaa
b1000011 aaaac
b1010101111001101 aaaad
1aaaae
b10000010 aaaag
b1111001111100101 aaaah
1aaaal

#335000
0aaaal

#340000
0aaaaa
1aaaab
b0 aaaac
b0 aaaad
0aaaae
b0 aaaag
b0 aaaah
b1000011 aaaai
b1010101111001101 aaaaj
1aaaak
1aaaal

#345000
0aaaal

#350000
0aaaab
b0 aaaai
b0 aaaaj
0aaaak
1aaaal

#355000
0aaaal

#360000
1aaaaa
b1000011 aaaac
b1010101111001101 aaaad
1aaaae
b10000010 aaaag
b1111001111100101 aaaah
1aaaal

#365000
0aaaal

#370000
0aaaaa
1aaaab
b0 aaaac
b0 aaaad
0aaaae
b0 aaaag
b0 aaaah
b1000011 aaaai
b1010101111001101 aaaaj
1aaaak
1aaaal

#375000
0aaaal

#380000
0aaaab
b0 aaaai
b0 aaaaj
0aaaak
1aaaal

#385000
0aaaal

#390000
1aaaaa
b1000011 aaaac
b1010101111001101 aaaad
1aaaae
b10000010 aaaag
b1111001111100101 aaaah
1aaaal

