can_bus_model/waveform.vcd
$date
     Feb 26, 2025       05:28:02
$end

$version
 SystemC 2.3.3-Accellera --- Dec 28 2022 21:47:10
$end

$timescale
     1 ps
$end

$scope module SystemC $end
$var wire    1  aaaaa  access_request_0       $end
$var wire    1  aaaab  access_granted_0       $end
$var wire   32  aaaac  rx_id_0 [31:0]  $end
$var wire   32  aaaad  rx_data_0 [31:0]  $end
$var wire    1  aaaae  access_request_1       $end
$var wire    1  aaaaf  access_granted_1       $end
$var wire   32  aaaag  rx_id_1 [31:0]  $end
$var wire   32  aaaah  rx_data_1 [31:0]  $end
$var wire   32  aaaai  tx_id [31:0]  $end
$var wire   32  aaaaj  tx_data [31:0]  $end
$var wire    1  aaaak  bus_transmission       $end
$var wire    1  aaaal  clock       $end
$upscope $end
$enddefinitions  $end

$comment
All initial values are dumped below at time 0 sec = 0 timescale units.
$end

$dumpvars
0aaaaa
0aaaab
b0 aaaac
b0 aaaad
0aaaae
0aaaaf
b0 aaaag
b0 aaaah
b0 aaaai
b0 aaaaj
0aaaak
1aaaal
$end

#5000
0aaaal

#10000
1aaaal

#15000
0aaaal

#20000
1aaaal

#25000
0aaaal

#30000
1aaaaa
b10011 aaaac
b1010101111001101 aaaad
1aaaal

#35000
0aaaal

#40000
0aaaaa
b0 aaaac
b0 aaaad
b10011 aaaai
b1010101111001101 aaaaj
1aaaak
1aaaal

#45000
0aaaal

#50000
b0 aaaai
b0 aaaaj
0aaaak
1aaaal

#55000
0aaaal

#60000
1aaaaa
b10011 aaaac
b1010101111001101 aaaad
1aaaal

#65000
0aaaal

#70000
0aaaaa
b0 aaaac
b0 aaaad
b10011 aaaai
b1010101111001101 aaaaj
1aaaak
1aaaal

#75000
0aaaal

#80000
b0 aaaai
b0 aaaaj
0aaaak
1aaaal

#85000
0aaaal

#90000
1aaaaa
b10011 aaaac
b1010101111001101 aaaad
1aaaal

#95000
0aaaal

#100000
0aaaaa
b0 aaaac
b0 aaaad
b10011 aaaai
b1010101111001101 aaaaj
1aaaak
1aaaal

#105000
0aaaal

#110000
b0 aaaai
b0 aaaaj
0aaaak
1aaaal

#115000
0aaaal

#120000
1aaaaa
b10011 aaaac
b1010101111001101 aaaad
1aaaal

#125000
0aaaal

#130000
0aaaaa
b0 aaaac
b0 aaaad
b10011 aaaai
b1010101111001101 aaaaj
1aaaak
1aaaal

#135000
0aaaal

#140000
b0 aaaai
b0 aaaaj
0aaaak
1aaaal

#145000
0aaaal

#150000
1aaaaa
b10011 aaaac
b1010101111001101 aaaad
1aaaal

#155000
0aaaal

#160000
0aaaaa
b0 aaaac
b0 aaaad
b10011 aaaai
b1010101111001101 aaaaj
1aaaak
1aaaal

#165000
0aaaal

#170000
b0 aaaai
b0 aaaaj
0aaaak
1aaaal

#175000
0aaaal

#180000
1aaaaa
b10011 aaaac
b1010101111001101 aaaad
1aaaal

#185000
0aaaal

#190000
0aaaaa
b0 aaaac
b0 aaaad
b10011 aaaai
b1010101111001101 aaaaj
1aaaak
1aaaal

#195000
0aaaal

#200000
b0 aaaai
b0 aaaaj
0aaaak
1aaaal

#205000
0aaaal

#210000
1aaaaa
b10011 aaaac
b1010101111001101 aaaad
1aaaal

#215000
0aaaal

#220000
0aaaaa
b0 aaaac
b0 aaaad
b10011 aaaai
b1010101111001101 aaaaj
1aaaak
1aaaal

#225000
0aaaal

#230000
b0 aaaai
b0 aaaaj
0aaaak
1aaaal

#235000
0aaaal

#240000
1aaaaa
b10011 aaaac
b1010101111001101 aaaad
1aaaal

#245000
0aaaal

#250000
0aaaaa
b0 aaaac
b0 aaaad
b10011 aaaai
b1010101111001101 aaaaj
1aaaak
1aaaal

#255000
0aaaal

#260000
b0 aaaai
b0 aaaaj
0aaaak
1aaaal

#265000
0aaaal

#270000
1aaaaa
b10011 aaaac
b1010101111001101 aaaad
1aaaal

#275000
0aaaal

#280000
0aaaaa
b0 aaaac
b0 aaaad
b10011 aaaai
b1010101111001101 aaaaj
1aaaak
1aaaal

#285000
0aaaal

#290000
b0 aaaai
b0 aaaaj
0aaaak
1aaaal

