can_bus_model/waveform.vcd
$date
     Mar 01, 2025       08:48:26
$end

$version
 SystemC 2.3.1-Accellera --- Feb 26 2025 23:30:23
$end

$timescale
     1 ps
$end

$scope module SystemC $end
$var wire    1  aaaaa  access_request_0       $end
$var wire    1  aaaab  access_granted_0       $end
$var wire   32  aaaac  rx_id_0 [31:0]  $end
$var wire   32  aaaad  rx_data_0 [31:0]  $end
$var wire    1  aaaae  access_request_1       $end
$var wire    1  aaaaf  access_granted_1       $end
$var wire   32  aaaag  rx_id_1 [31:0]  $end
$var wire   32  aaaah  rx_data_1 [31:0]  $end
$var wire    1  aaaai  access_request_2       $end
$var wire    1  aaaaj  access_granted_2       $end
$var wire   32  aaaak  rx_id_2 [31:0]  $end
$var wire   32  aaaal  rx_data_2 [31:0]  $end
$var wire   32  aaaam  tx_id [31:0]  $end
$var wire   32  aaaan  tx_data [31:0]  $end
$var wire    1  aaaao  bus_transmission       $end
$var wire    1  aaaap  clock       $end
$upscope $end
$enddefinitions  $end

$comment
All initial values are dumped below at time 0 sec = 0 timescale units.
$end

$dumpvars
0aaaaa
0aaaab
b0 aaaac
b0 aaaad
0aaaae
0aaaaf
b0 aaaag
b0 aaaah
0aaaai
0aaaaj
b0 aaaak
b0 aaaal
b0 aaaam
b0 aaaan
0aaaao
1aaaap
$end

#2500
0aaaap

#5000
1aaaap

#7500
0aaaap

#10000
1aaaap

#12500
0aaaap

#15000
1aaaai
b100100011 aaaak
b11001010111111101011101010111110 aaaal
1aaaap

#17500
0aaaap

#20000
1aaaaj
b100100011 aaaam
b11001010111111101011101010111110 aaaan
1aaaao
1aaaap

#22500
0aaaap

#25000
0aaaai
0aaaaj
b0 aaaak
b0 aaaal
b0 aaaam
b0 aaaan
0aaaao
1aaaap

#27500
0aaaap

#30000
1aaaai
b100100011 aaaak
b11001010111111101011101010111110 aaaal
1aaaap

#32500
0aaaap

#35000
1aaaaj
b100100011 aaaam
b11001010111111101011101010111110 aaaan
1aaaao
1aaaap

#37500
0aaaap

#40000
0aaaai
0aaaaj
b0 aaaak
b0 aaaal
b0 aaaam
b0 aaaan
0aaaao
1aaaap

#42500
0aaaap

#45000
1aaaai
b100100011 aaaak
b11001010111111101011101010111110 aaaal
1aaaap

#47500
0aaaap

#50000
1aaaaj
b100100011 aaaam
b11001010111111101011101010111110 aaaan
1aaaao
1aaaap

#52500
0aaaap

#55000
0aaaai
0aaaaj
b0 aaaak
b0 aaaal
b0 aaaam
b0 aaaan
0aaaao
1aaaap

#57500
0aaaap

#60000
1aaaaa
b1000011 aaaac
b1010101111001101 aaaad
1aaaae
b10000010 aaaag
b1111001111100101 aaaah
1aaaai
b100100011 aaaak
b11001010111111101011101010111110 aaaal
1aaaap

#62500
0aaaap

#65000
1aaaab
b1000011 aaaam
b1010101111001101 aaaan
1aaaao
1aaaap

#67500
0aaaap

#70000
0aaaaa
0aaaab
b0 aaaac
b0 aaaad
b0 aaaam
b0 aaaan
0aaaao
1aaaap

#72500
0aaaap

#75000
1aaaaf
b10000010 aaaam
b1111001111100101 aaaan
1aaaao
1aaaap

#77500
0aaaap

#80000
0aaaae
0aaaaf
b0 aaaag
b0 aaaah
b0 aaaam
b0 aaaan
0aaaao
1aaaap

#82500
0aaaap

#85000
1aaaaj
b100100011 aaaam
b11001010111111101011101010111110 aaaan
1aaaao
1aaaap

#87500
0aaaap

#90000
0aaaai
0aaaaj
b0 aaaak
b0 aaaal
b0 aaaam
b0 aaaan
0aaaao
1aaaap

#92500
0aaaap

#95000
1aaaap

#97500
0aaaap

#100000
1aaaap

#102500
0aaaap

#105000
1aaaai
b100100011 aaaak
b11001010111111101011101010111110 aaaal
1aaaap

#107500
0aaaap

#110000
1aaaaj
b100100011 aaaam
b11001010111111101011101010111110 aaaan
1aaaao
1aaaap

#112500
0aaaap

#115000
0aaaai
0aaaaj
b0 aaaak
b0 aaaal
b0 aaaam
b0 aaaan
0aaaao
1aaaap

#117500
0aaaap

#120000
1aaaaa
b1000011 aaaac
b1010101111001101 aaaad
1aaaae
b10000010 aaaag
b1111001111100101 aaaah
1aaaai
b100100011 aaaak
b11001010111111101011101010111110 aaaal
1aaaap

#122500
0aaaap

#125000
1aaaab
b1000011 aaaam
b1010101111001101 aaaan
1aaaao
1aaaap

#127500
0aaaap

#130000
0aaaaa
0aaaab
b0 aaaac
b0 aaaad
b0 aaaam
b0 aaaan
0aaaao
1aaaap

#132500
0aaaap

#135000
1aaaaf
b10000010 aaaam
b1111001111100101 aaaan
1aaaao
1aaaap

#137500
0aaaap

#140000
0aaaae
0aaaaf
b0 aaaag
b0 aaaah
b0 aaaam
b0 aaaan
0aaaao
1aaaap

#142500
0aaaap

#145000
1aaaaj
b100100011 aaaam
b11001010111111101011101010111110 aaaan
1aaaao
1aaaap

#147500
0aaaap

#150000
0aaaai
0aaaaj
b0 aaaak
b0 aaaal
b0 aaaam
b0 aaaan
0aaaao
1aaaap

#152500
0aaaap

#155000
1aaaap

#157500
0aaaap

#160000
1aaaap

#162500
0aaaap

#165000
1aaaai
b100100011 aaaak
b11001010111111101011101010111110 aaaal
1aaaap

#167500
0aaaap

#170000
1aaaaj
b100100011 aaaam
b11001010111111101011101010111110 aaaan
1aaaao
1aaaap

#172500
0aaaap

#175000
0aaaai
0aaaaj
b0 aaaak
b0 aaaal
b0 aaaam
b0 aaaan
0aaaao
1aaaap

#177500
0aaaap

#180000
1aaaaa
b1000011 aaaac
b1010101111001101 aaaad
1aaaae
b10000010 aaaag
b1111001111100101 aaaah
1aaaai
b100100011 aaaak
b11001010111111101011101010111110 aaaal
1aaaap

#182500
0aaaap

#185000
1aaaab
b1000011 aaaam
b1010101111001101 aaaan
1aaaao
1aaaap

#187500
0aaaap

#190000
0aaaaa
0aaaab
b0 aaaac
b0 aaaad
b0 aaaam
b0 aaaan
0aaaao
1aaaap

#192500
0aaaap

#195000
1aaaaf
b10000010 aaaam
b1111001111100101 aaaan
1aaaao
1aaaap

#197500
0aaaap

#200000
0aaaae
0aaaaf
b0 aaaag
b0 aaaah
b0 aaaam
b0 aaaan
0aaaao
1aaaap

#202500
0aaaap

#205000
1aaaaj
b100100011 aaaam
b11001010111111101011101010111110 aaaan
1aaaao
1aaaap

#207500
0aaaap

#210000
0aaaai
0aaaaj
b0 aaaak
b0 aaaal
b0 aaaam
b0 aaaan
0aaaao
1aaaap

#212500
0aaaap

#215000
1aaaap

#217500
0aaaap

#220000
1aaaap

#222500
0aaaap

#225000
1aaaai
b100100011 aaaak
b11001010111111101011101010111110 aaaal
1aaaap

#227500
0aaaap

#230000
1aaaaj
b100100011 aaaam
b11001010111111101011101010111110 aaaan
1aaaao
1aaaap

#232500
0aaaap

#235000
0aaaai
0aaaaj
b0 aaaak
b0 aaaal
b0 aaaam
b0 aaaan
0aaaao
1aaaap

#237500
0aaaap

#240000
1aaaaa
b1000011 aaaac
b1010101111001101 aaaad
1aaaae
b10000010 aaaag
b1111001111100101 aaaah
1aaaai
b100100011 aaaak
b11001010111111101011101010111110 aaaal
1aaaap

#242500
0aaaap

#245000
1aaaab
b1000011 aaaam
b1010101111001101 aaaan
1aaaao
1aaaap

#247500
0aaaap

#250000
0aaaaa
0aaaab
b0 aaaac
b0 aaaad
b0 aaaam
b0 aaaan
0aaaao
1aaaap

#252500
0aaaap

#255000
1aaaaf
b10000010 aaaam
b1111001111100101 aaaan
1aaaao
1aaaap

#257500
0aaaap

#260000
0aaaae
0aaaaf
b0 aaaag
b0 aaaah
b0 aaaam
b0 aaaan
0aaaao
1aaaap

#262500
0aaaap

#265000
1aaaaj
b100100011 aaaam
b11001010111111101011101010111110 aaaan
1aaaao
1aaaap

#267500
0aaaap

#270000
0aaaai
0aaaaj
b0 aaaak
b0 aaaal
b0 aaaam
b0 aaaan
0aaaao
1aaaap

#272500
0aaaap

#275000
1aaaap

#277500
0aaaap

#280000
1aaaap

#282500
0aaaap

#285000
1aaaai
b100100011 aaaak
b11001010111111101011101010111110 aaaal
1aaaap

#287500
0aaaap

#290000
1aaaaj
b100100011 aaaam
b11001010111111101011101010111110 aaaan
1aaaao
1aaaap

#292500
0aaaap

#295000
0aaaai
0aaaaj
b0 aaaak
b0 aaaal
b0 aaaam
b0 aaaan
0aaaao
1aaaap

#297500
0aaaap

#300000
1aaaaa
b1000011 aaaac
b1010101111001101 aaaad
1aaaae
b10000010 aaaag
b1111001111100101 aaaah
1aaaai
b100100011 aaaak
b11001010111111101011101010111110 aaaal
1aaaap

#302500
0aaaap

#305000
1aaaab
b1000011 aaaam
b1010101111001101 aaaan
1aaaao
1aaaap

#307500
0aaaap

#310000
0aaaaa
0aaaab
b0 aaaac
b0 aaaad
b0 aaaam
b0 aaaan
0aaaao
1aaaap

#312500
0aaaap

#315000
1aaaaf
b10000010 aaaam
b1111001111100101 aaaan
1aaaao
1aaaap

#317500
0aaaap

#320000
0aaaae
0aaaaf
b0 aaaag
b0 aaaah
b0 aaaam
b0 aaaan
0aaaao
1aaaap

#322500
0aaaap

#325000
1aaaaj
b100100011 aaaam
b11001010111111101011101010111110 aaaan
1aaaao
1aaaap

#327500
0aaaap

#330000
0aaaai
0aaaaj
b0 aaaak
b0 aaaal
b0 aaaam
b0 aaaan
0aaaao
1aaaap

#332500
0aaaap

#335000
1aaaap

#337500
0aaaap

#340000
1aaaap

#342500
0aaaap

#345000
1aaaai
b100100011 aaaak
b11001010111111101011101010111110 aaaal
1aaaap

#347500
0aaaap

#350000
1aaaaj
b100100011 aaaam
b11001010111111101011101010111110 aaaan
1aaaao
1aaaap

#352500
0aaaap

#355000
0aaaai
0aaaaj
b0 aaaak
b0 aaaal
b0 aaaam
b0 aaaan
0aaaao
1aaaap

#357500
0aaaap

#360000
1aaaaa
b1000011 aaaac
b1010101111001101 aaaad
1aaaae
b10000010 aaaag
b1111001111100101 aaaah
1aaaai
b100100011 aaaak
b11001010111111101011101010111110 aaaal
1aaaap

#362500
0aaaap

#365000
1aaaab
b1000011 aaaam
b1010101111001101 aaaan
1aaaao
1aaaap

#367500
0aaaap

#370000
0aaaaa
0aaaab
b0 aaaac
b0 aaaad
b0 aaaam
b0 aaaan
0aaaao
1aaaap

#372500
0aaaap

#375000
1aaaaf
b10000010 aaaam
b1111001111100101 aaaan
1aaaao
1aaaap

#377500
0aaaap

#380000
0aaaae
0aaaaf
b0 aaaag
b0 aaaah
b0 aaaam
b0 aaaan
0aaaao
1aaaap

#382500
0aaaap

#385000
1aaaaj
b100100011 aaaam
b11001010111111101011101010111110 aaaan
1aaaao
1aaaap

#387500
0aaaap

#390000
0aaaai
0aaaaj
b0 aaaak
b0 aaaal
b0 aaaam
b0 aaaan
0aaaao
1aaaap

#392500
0aaaap

#395000
1aaaap

#397500
0aaaap

#400000
1aaaap

#402500
0aaaap

#405000
1aaaai
b100100011 aaaak
b11001010111111101011101010111110 aaaal
1aaaap

#407500
0aaaap

#410000
1aaaaj
b100100011 aaaam
b11001010111111101011101010111110 aaaan
1aaaao
1aaaap

#412500
0aaaap

#415000
0aaaai
0aaaaj
b0 aaaak
b0 aaaal
b0 aaaam
b0 aaaan
0aaaao
1aaaap

#417500
0aaaap

#420000
1aaaaa
b1000011 aaaac
b1010101111001101 aaaad
1aaaae
b10000010 aaaag
b1111001111100101 aaaah
1aaaai
b100100011 aaaak
b11001010111111101011101010111110 aaaal
1aaaap

#422500
0aaaap

#425000
1aaaab
b1000011 aaaam
b1010101111001101 aaaan
1aaaao
1aaaap

#427500
0aaaap

#430000
0aaaaa
0aaaab
b0 aaaac
b0 aaaad
b0 aaaam
b0 aaaan
0aaaao
1aaaap

#432500
0aaaap

#435000
1aaaaf
b10000010 aaaam
b1111001111100101 aaaan
1aaaao
1aaaap

#437500
0aaaap

#440000
0aaaae
0aaaaf
b0 aaaag
b0 aaaah
b0 aaaam
b0 aaaan
0aaaao
1aaaap

#442500
0aaaap

#445000
1aaaaj
b100100011 aaaam
b11001010111111101011101010111110 aaaan
1aaaao
1aaaap

#447500
0aaaap

#450000
0aaaai
0aaaaj
b0 aaaak
b0 aaaal
b0 aaaam
b0 aaaan
0aaaao
1aaaap

#452500
0aaaap

#455000
1aaaap

#457500
0aaaap

#460000
1aaaap

#462500
0aaaap

#465000
1aaaai
b100100011 aaaak
b11001010111111101011101010111110 aaaal
1aaaap

#467500
0aaaap

#470000
1aaaaj
b100100011 aaaam
b11001010111111101011101010111110 aaaan
1aaaao
1aaaap

#472500
0aaaap

#475000
0aaaai
0aaaaj
b0 aaaak
b0 aaaal
b0 aaaam
b0 aaaan
0aaaao
1aaaap

#477500
0aaaap

#480000
1aaaaa
b1000011 aaaac
b1010101111001101 aaaad
1aaaae
b10000010 aaaag
b1111001111100101 aaaah
1aaaai
b100100011 aaaak
b11001010111111101011101010111110 aaaal
1aaaap

#482500
0aaaap

#485000
1aaaab
b1000011 aaaam
b1010101111001101 aaaan
1aaaao
1aaaap

#487500
0aaaap

#490000
0aaaaa
0aaaab
b0 aaaac
b0 aaaad
b0 aaaam
b0 aaaan
0aaaao
1aaaap

#492500
0aaaap

#495000
1aaaaf
b10000010 aaaam
b1111001111100101 aaaan
1aaaao
1aaaap

#497500
0aaaap

#500000
0aaaae
0aaaaf
b0 aaaag
b0 aaaah
b0 aaaam
b0 aaaan
0aaaao
1aaaap

#502500
0aaaap

#505000
1aaaaj
b100100011 aaaam
b11001010111111101011101010111110 aaaan
1aaaao
1aaaap

#507500
0aaaap

#510000
0aaaai
0aaaaj
b0 aaaak
b0 aaaal
b0 aaaam
b0 aaaan
0aaaao
1aaaap

#512500
0aaaap

#515000
1aaaap

#517500
0aaaap

#520000
1aaaap

#522500
0aaaap

#525000
1aaaai
b100100011 aaaak
b11001010111111101011101010111110 aaaal
1aaaap

#527500
0aaaap

#530000
1aaaaj
b100100011 aaaam
b11001010111111101011101010111110 aaaan
1aaaao
1aaaap

#532500
0aaaap

#535000
0aaaai
0aaaaj
b0 aaaak
b0 aaaal
b0 aaaam
b0 aaaan
0aaaao
1aaaap

#537500
0aaaap

#540000
1aaaaa
b1000011 aaaac
b1010101111001101 aaaad
1aaaae
b10000010 aaaag
b1111001111100101 aaaah
1aaaai
b100100011 aaaak
b11001010111111101011101010111110 aaaal
1aaaap

#542500
0aaaap

#545000
1aaaab
b1000011 aaaam
b1010101111001101 aaaan
1aaaao
1aaaap

#547500
0aaaap

#550000
0aaaaa
0aaaab
b0 aaaac
b0 aaaad
b0 aaaam
b0 aaaan
0aaaao
1aaaap

#552500
0aaaap

#555000
1aaaaf
b10000010 aaaam
b1111001111100101 aaaan
1aaaao
1aaaap

#557500
0aaaap

#560000
0aaaae
0aaaaf
b0 aaaag
b0 aaaah
b0 aaaam
b0 aaaan
0aaaao
1aaaap

#562500
0aaaap

#565000
1aaaaj
b100100011 aaaam
b11001010111111101011101010111110 aaaan
1aaaao
1aaaap

#567500
0aaaap

#570000
0aaaai
0aaaaj
b0 aaaak
b0 aaaal
b0 aaaam
b0 aaaan
0aaaao
1aaaap

#572500
0aaaap

#575000
1aaaap

#577500
0aaaap

#580000
1aaaap

#582500
0aaaap

#585000
1aaaai
b100100011 aaaak
b11001010111111101011101010111110 aaaal
1aaaap

#587500
0aaaap

#590000
1aaaaj
b100100011 aaaam
b11001010111111101011101010111110 aaaan
1aaaao
1aaaap

#592500
0aaaap

#595000
0aaaai
0aaaaj
b0 aaaak
b0 aaaal
b0 aaaam
b0 aaaan
0aaaao
1aaaap

#597500
0aaaap

#600000
1aaaaa
b1000011 aaaac
b1010101111001101 aaaad
1aaaae
b10000010 aaaag
b1111001111100101 aaaah
1aaaai
b100100011 aaaak
b11001010111111101011101010111110 aaaal
1aaaap

#602500
0aaaap

#605000
1aaaab
b1000011 aaaam
b1010101111001101 aaaan
1aaaao
1aaaap

#607500
0aaaap

#610000
0aaaaa
0aaaab
b0 aaaac
b0 aaaad
b0 aaaam
b0 aaaan
0aaaao
1aaaap

#612500
0aaaap

#615000
1aaaaf
b10000010 aaaam
b1111001111100101 aaaan
1aaaao
1aaaap

#617500
0aaaap

#620000
0aaaae
0aaaaf
b0 aaaag
b0 aaaah
b0 aaaam
b0 aaaan
0aaaao
1aaaap

#622500
0aaaap

#625000
1aaaaj
b100100011 aaaam
b11001010111111101011101010111110 aaaan
1aaaao
1aaaap

#627500
0aaaap

#630000
0aaaai
0aaaaj
b0 aaaak
b0 aaaal
b0 aaaam
b0 aaaan
0aaaao
1aaaap

#632500
0aaaap

#635000
1aaaap

#637500
0aaaap

#640000
1aaaap

#642500
0aaaap

#645000
1aaaai
b100100011 aaaak
b11001010111111101011101010111110 aaaal
1aaaap

#647500
0aaaap

#650000
1aaaaj
b100100011 aaaam
b11001010111111101011101010111110 aaaan
1aaaao
1aaaap

#652500
0aaaap

#655000
0aaaai
0aaaaj
b0 aaaak
b0 aaaal
b0 aaaam
b0 aaaan
0aaaao
1aaaap

#657500
0aaaap

#660000
1aaaaa
b1000011 aaaac
b1010101111001101 aaaad
1aaaae
b10000010 aaaag
b1111001111100101 aaaah
1aaaai
b100100011 aaaak
b11001010111111101011101010111110 aaaal
1aaaap

#662500
0aaaap

#665000
1aaaab
b1000011 aaaam
b1010101111001101 aaaan
1aaaao
1aaaap

#667500
0aaaap

#670000
0aaaaa
0aaaab
b0 aaaac
b0 aaaad
b0 aaaam
b0 aaaan
0aaaao
1aaaap

#672500
0aaaap

#675000
1aaaaf
b10000010 aaaam
b1111001111100101 aaaan
1aaaao
1aaaap

#677500
0aaaap

#680000
0aaaae
0aaaaf
b0 aaaag
b0 aaaah
b0 aaaam
b0 aaaan
0aaaao
1aaaap

#682500
0aaaap

#685000
1aaaaj
b100100011 aaaam
b11001010111111101011101010111110 aaaan
1aaaao
1aaaap

#687500
0aaaap

#690000
0aaaai
0aaaaj
b0 aaaak
b0 aaaal
b0 aaaam
b0 aaaan
0aaaao
1aaaap

#692500
0aaaap

#695000
1aaaap

#697500
0aaaap

#700000
1aaaap

#702500
0aaaap

#705000
1aaaai
b100100011 aaaak
b11001010111111101011101010111110 aaaal
1aaaap

#707500
0aaaap

#710000
1aaaaj
b100100011 aaaam
b11001010111111101011101010111110 aaaan
1aaaao
1aaaap

#712500
0aaaap

#715000
0aaaai
0aaaaj
b0 aaaak
b0 aaaal
b0 aaaam
b0 aaaan
0aaaao
1aaaap

#717500
0aaaap

#720000
1aaaaa
b1000011 aaaac
b1010101111001101 aaaad
1aaaae
b10000010 aaaag
b1111001111100101 aaaah
1aaaai
b100100011 aaaak
b11001010111111101011101010111110 aaaal
1aaaap

#722500
0aaaap

#725000
1aaaab
b1000011 aaaam
b1010101111001101 aaaan
1aaaao
1aaaap

#727500
0aaaap

#730000
0aaaaa
0aaaab
b0 aaaac
b0 aaaad
b0 aaaam
b0 aaaan
0aaaao
1aaaap

#732500
0aaaap

#735000
1aaaaf
b10000010 aaaam
b1111001111100101 aaaan
1aaaao
1aaaap

#737500
0aaaap

#740000
0aaaae
0aaaaf
b0 aaaag
b0 aaaah
b0 aaaam
b0 aaaan
0aaaao
1aaaap

#742500
0aaaap

#745000
1aaaaj
b100100011 aaaam
b11001010111111101011101010111110 aaaan
1aaaao
1aaaap

#747500
0aaaap

#750000
0aaaai
0aaaaj
b0 aaaak
b0 aaaal
b0 aaaam
b0 aaaan
0aaaao
1aaaap

#752500
0aaaap

#755000
1aaaap

#757500
0aaaap

#760000
1aaaap

#762500
0aaaap

#765000
1aaaai
b100100011 aaaak
b11001010111111101011101010111110 aaaal
1aaaap

#767500
0aaaap

#770000
1aaaaj
b100100011 aaaam
b11001010111111101011101010111110 aaaan
1aaaao
1aaaap

#772500
0aaaap

#775000
0aaaai
0aaaaj
b0 aaaak
b0 aaaal
b0 aaaam
b0 aaaan
0aaaao
1aaaap

#777500
0aaaap

#780000
1aaaaa
b1000011 aaaac
b1010101111001101 aaaad
1aaaae
b10000010 aaaag
b1111001111100101 aaaah
1aaaai
b100100011 aaaak
b11001010111111101011101010111110 aaaal
1aaaap

#782500
0aaaap

#785000
1aaaab
b1000011 aaaam
b1010101111001101 aaaan
1aaaao
1aaaap

#787500
0aaaap

#790000
0aaaaa
0aaaab
b0 aaaac
b0 aaaad
b0 aaaam
b0 aaaan
0aaaao
1aaaap

#792500
0aaaap

#795000
1aaaaf
b10000010 aaaam
b1111001111100101 aaaan
1aaaao
1aaaap

#797500
0aaaap

#800000
0aaaae
0aaaaf
b0 aaaag
b0 aaaah
b0 aaaam
b0 aaaan
0aaaao
1aaaap

#802500
0aaaap

#805000
1aaaaj
b100100011 aaaam
b11001010111111101011101010111110 aaaan
1aaaao
1aaaap

#807500
0aaaap

#810000
0aaaai
0aaaaj
b0 aaaak
b0 aaaal
b0 aaaam
b0 aaaan
0aaaao
1aaaap

#812500
0aaaap

#815000
1aaaap

#817500
0aaaap

#820000
1aaaap

#822500
0aaaap

#825000
1aaaai
b100100011 aaaak
b11001010111111101011101010111110 aaaal
1aaaap

#827500
0aaaap

#830000
1aaaaj
b100100011 aaaam
b11001010111111101011101010111110 aaaan
1aaaao
1aaaap

#832500
0aaaap

#835000
0aaaai
0aaaaj
b0 aaaak
b0 aaaal
b0 aaaam
b0 aaaan
0aaaao
1aaaap

#837500
0aaaap

#840000
1aaaaa
b1000011 aaaac
b1010101111001101 aaaad
1aaaae
b10000010 aaaag
b1111001111100101 aaaah
1aaaai
b100100011 aaaak
b11001010111111101011101010111110 aaaal
1aaaap

#842500
0aaaap

#845000
1aaaab
b1000011 aaaam
b1010101111001101 aaaan
1aaaao
1aaaap

#847500
0aaaap

#850000
0aaaaa
0aaaab
b0 aaaac
b0 aaaad
b0 aaaam
b0 aaaan
0aaaao
1aaaap

#852500
0aaaap

#855000
1aaaaf
b10000010 aaaam
b1111001111100101 aaaan
1aaaao
1aaaap

#857500
0aaaap

#860000
0aaaae
0aaaaf
b0 aaaag
b0 aaaah
b0 aaaam
b0 aaaan
0aaaao
1aaaap

#862500
0aaaap

#865000
1aaaaj
b100100011 aaaam
b11001010111111101011101010111110 aaaan
1aaaao
1aaaap

#867500
0aaaap

#870000
0aaaai
0aaaaj
b0 aaaak
b0 aaaal
b0 aaaam
b0 aaaan
0aaaao
1aaaap

#872500
0aaaap

#875000
1aaaap

#877500
0aaaap

#880000
1aaaap

#882500
0aaaap

#885000
1aaaai
b100100011 aaaak
b11001010111111101011101010111110 aaaal
1aaaap

#887500
0aaaap

#890000
1aaaaj
b100100011 aaaam
b11001010111111101011101010111110 aaaan
1aaaao
1aaaap

#892500
0aaaap

#895000
0aaaai
0aaaaj
b0 aaaak
b0 aaaal
b0 aaaam
b0 aaaan
0aaaao
1aaaap

#897500
0aaaap

#900000
1aaaaa
b1000011 aaaac
b1010101111001101 aaaad
1aaaae
b10000010 aaaag
b1111001111100101 aaaah
1aaaai
b100100011 aaaak
b11001010111111101011101010111110 aaaal
1aaaap

#902500
0aaaap

#905000
1aaaab
b1000011 aaaam
b1010101111001101 aaaan
1aaaao
1aaaap

#907500
0aaaap

#910000
0aaaaa
0aaaab
b0 aaaac
b0 aaaad
b0 aaaam
b0 aaaan
0aaaao
1aaaap

#912500
0aaaap

#915000
1aaaaf
b10000010 aaaam
b1111001111100101 aaaan
1aaaao
1aaaap

#917500
0aaaap

#920000
0aaaae
0aaaaf
b0 aaaag
b0 aaaah
b0 aaaam
b0 aaaan
0aaaao
1aaaap

#922500
0aaaap

#925000
1aaaaj
b100100011 aaaam
b11001010111111101011101010111110 aaaan
1aaaao
1aaaap

#927500
0aaaap

#930000
0aaaai
0aaaaj
b0 aaaak
b0 aaaal
b0 aaaam
b0 aaaan
0aaaao
1aaaap

#932500
0aaaap

#935000
1aaaap

#937500
0aaaap

#940000
1aaaap

#942500
0aaaap

#945000
1aaaai
b100100011 aaaak
b11001010111111101011101010111110 aaaal
1aaaap

#947500
0aaaap

#950000
1aaaaj
b100100011 aaaam
b11001010111111101011101010111110 aaaan
1aaaao
1aaaap

#952500
0aaaap

#955000
0aaaai
0aaaaj
b0 aaaak
b0 aaaal
b0 aaaam
b0 aaaan
0aaaao
1aaaap

#957500
0aaaap

#960000
1aaaaa
b1000011 aaaac
b1010101111001101 aaaad
1aaaae
b10000010 aaaag
b1111001111100101 aaaah
1aaaai
b100100011 aaaak
b11001010111111101011101010111110 aaaal
1aaaap

#962500
0aaaap

#965000
1aaaab
b1000011 aaaam
b1010101111001101 aaaan
1aaaao
1aaaap

#967500
0aaaap

#970000
0aaaaa
0aaaab
b0 aaaac
b0 aaaad
b0 aaaam
b0 aaaan
0aaaao
1aaaap

#972500
0aaaap

#975000
1aaaaf
b10000010 aaaam
b1111001111100101 aaaan
1aaaao
1aaaap

#977500
0aaaap

#980000
0aaaae
0aaaaf
b0 aaaag
b0 aaaah
b0 aaaam
b0 aaaan
0aaaao
1aaaap

#982500
0aaaap

#985000
1aaaaj
b100100011 aaaam
b11001010111111101011101010111110 aaaan
1aaaao
1aaaap

#987500
0aaaap

#990000
0aaaai
0aaaaj
b0 aaaak
b0 aaaal
b0 aaaam
b0 aaaan
0aaaao
1aaaap

#992500
0aaaap

#995000
1aaaap

#997500
0aaaap

#1000000
1aaaap

#1002500
0aaaap

#1005000
1aaaai
b100100011 aaaak
b11001010111111101011101010111110 aaaal
1aaaap

#1007500
0aaaap

#1010000
1aaaaj
b100100011 aaaam
b11001010111111101011101010111110 aaaan
1aaaao
1aaaap

#1012500
0aaaap

#1015000
0aaaai
0aaaaj
b0 aaaak
b0 aaaal
b0 aaaam
b0 aaaan
0aaaao
1aaaap

#1017500
0aaaap

#1020000
1aaaaa
b1000011 aaaac
b1010101111001101 aaaad
1aaaae
b10000010 aaaag
b1111001111100101 aaaah
1aaaai
b100100011 aaaak
b11001010111111101011101010111110 aaaal
1aaaap

#1022500
0aaaap

#1025000
1aaaab
b1000011 aaaam
b1010101111001101 aaaan
1aaaao
1aaaap

#1027500
0aaaap

#1030000
0aaaaa
0aaaab
b0 aaaac
b0 aaaad
b0 aaaam
b0 aaaan
0aaaao
1aaaap

#1032500
0aaaap

#1035000
1aaaaf
b10000010 aaaam
b1111001111100101 aaaan
1aaaao
1aaaap

#1037500
0aaaap

#1040000
0aaaae
0aaaaf
b0 aaaag
b0 aaaah
b0 aaaam
b0 aaaan
0aaaao
1aaaap

#1042500
0aaaap

#1045000
1aaaaj
b100100011 aaaam
b11001010111111101011101010111110 aaaan
1aaaao
1aaaap

#1047500
0aaaap

#1050000
0aaaai
0aaaaj
b0 aaaak
b0 aaaal
b0 aaaam
b0 aaaan
0aaaao
1aaaap

#1052500
0aaaap

#1055000
1aaaap

#1057500
0aaaap

#1060000
1aaaap

#1062500
0aaaap

#1065000
1aaaai
b100100011 aaaak
b11001010111111101011101010111110 aaaal
1aaaap

#1067500
0aaaap

#1070000
1aaaaj
b100100011 aaaam
b11001010111111101011101010111110 aaaan
1aaaao
1aaaap

#1072500
0aaaap

#1075000
0aaaai
0aaaaj
b0 aaaak
b0 aaaal
b0 aaaam
b0 aaaan
0aaaao
1aaaap

#1077500
0aaaap

#1080000
1aaaaa
b1000011 aaaac
b1010101111001101 aaaad
1aaaae
b10000010 aaaag
b1111001111100101 aaaah
1aaaai
b100100011 aaaak
b11001010111111101011101010111110 aaaal
1aaaap

#1082500
0aaaap

#1085000
1aaaab
b1000011 aaaam
b1010101111001101 aaaan
1aaaao
1aaaap

#1087500
0aaaap

#1090000
0aaaaa
0aaaab
b0 aaaac
b0 aaaad
b0 aaaam
b0 aaaan
0aaaao
1aaaap

#1092500
0aaaap

#1095000
1aaaaf
b10000010 aaaam
b1111001111100101 aaaan
1aaaao
1aaaap

#1097500
0aaaap

#1100000
0aaaae
0aaaaf
b0 aaaag
b0 aaaah
b0 aaaam
b0 aaaan
0aaaao
1aaaap

#1102500
0aaaap

#1105000
1aaaaj
b100100011 aaaam
b11001010111111101011101010111110 aaaan
1aaaao
1aaaap

#1107500
0aaaap

#1110000
0aaaai
0aaaaj
b0 aaaak
b0 aaaal
b0 aaaam
b0 aaaan
0aaaao
1aaaap

#1112500
0aaaap

#1115000
1aaaap

#1117500
0aaaap

#1120000
1aaaap

#1122500
0aaaap

#1125000
1aaaai
b100100011 aaaak
b11001010111111101011101010111110 aaaal
1aaaap

#1127500
0aaaap

#1130000
1aaaaj
b100100011 aaaam
b11001010111111101011101010111110 aaaan
1aaaao
1aaaap

#1132500
0aaaap

#1135000
0aaaai
0aaaaj
b0 aaaak
b0 aaaal
b0 aaaam
b0 aaaan
0aaaao
1aaaap

#1137500
0aaaap

#1140000
1aaaaa
b1000011 aaaac
b1010101111001101 aaaad
1aaaae
b10000010 aaaag
b1111001111100101 aaaah
1aaaai
b100100011 aaaak
b11001010111111101011101010111110 aaaal
1aaaap

#1142500
0aaaap

#1145000
1aaaab
b1000011 aaaam
b1010101111001101 aaaan
1aaaao
1aaaap

#1147500
0aaaap

#1150000
0aaaaa
0aaaab
b0 aaaac
b0 aaaad
b0 aaaam
b0 aaaan
0aaaao
1aaaap

#1152500
0aaaap

#1155000
1aaaaf
b10000010 aaaam
b1111001111100101 aaaan
1aaaao
1aaaap

#1157500
0aaaap

#1160000
0aaaae
0aaaaf
b0 aaaag
b0 aaaah
b0 aaaam
b0 aaaan
0aaaao
1aaaap

#1162500
0aaaap

#1165000
1aaaaj
b100100011 aaaam
b11001010111111101011101010111110 aaaan
1aaaao
1aaaap

#1167500
0aaaap

#1170000
0aaaai
0aaaaj
b0 aaaak
b0 aaaal
b0 aaaam
b0 aaaan
0aaaao
1aaaap

#1172500
0aaaap

#1175000
1aaaap

#1177500
0aaaap

#1180000
1aaaap

#1182500
0aaaap

#1185000
1aaaai
b100100011 aaaak
b11001010111111101011101010111110 aaaal
1aaaap

#1187500
0aaaap

