AMS/first_example/tdf_trace.vcd
$date
    Fri Apr  4 05:26:49 2025
$end

$version
    2.4
$end

$timescale
      1 ps
$end

$scope module SystemC_AMS $end

$var real 1 !  sine_wave $end

$upscope $end

$enddefinitions $end


#0
r0.03141075907812829 !

#10000000000
r0.06279051952931337 !

#20000000000
r0.09410831331851433 !

#30000000000
r0.1253332335643043 !

#40000000000
r0.1564344650402309 !

#50000000000
r0.1873813145857246 !

#60000000000
r0.2181432413965425 !

#70000000000
r0.2486898871648547 !

#80000000000
r0.2789911060392292 !

#90000000000
r0.3090169943749473 !

#100000000000
r0.3387379202452913 !

#110000000000
r0.3681245526846779 !

#120000000000
r0.3971478906347805 !

#130000000000
r0.4257792915650725 !

#140000000000
r0.4539904997395467 !

#150000000000
r0.4817536741017152 !

#160000000000
r0.5090414157503713 !

#170000000000
r0.5358267949789967 !

#180000000000
r0.5620833778521306 !

#190000000000
r0.5877852522924732 !

#200000000000
r0.6129070536529766 !

#210000000000
r0.6374239897486899 !

#220000000000
r0.6613118653236520 !

#230000000000
r0.6845471059286888 !

#240000000000
r0.7071067811865477 !

#250000000000
r0.7289686274214118 !

#260000000000
r0.7501110696304598 !

#270000000000
r0.7705132427757895 !

#280000000000
r0.7901550123756906 !

#290000000000
r0.8090169943749477 !

#300000000000
r0.8270805742745622 !

#310000000000
r0.8443279255020153 !

#320000000000
r0.8607420270039439 !

#330000000000
r0.8763066800438639 !

#340000000000
r0.8910065241883681 !

#350000000000
r0.9048270524660198 !

#360000000000
r0.9177546256839815 !

#370000000000
r0.9297764858882517 !

#380000000000
r0.9408807689542258 !

#390000000000
r0.9510565162951539 !

#400000000000
r0.9602936856769433 !

#410000000000
r0.9685831611286313 !

#420000000000
r0.9759167619387477 !

#430000000000
r0.9822872507286888 !

#440000000000
r0.9876883405951379 !

#450000000000
r0.9921147013144780 !

#460000000000
r0.9955619646030801 !

#470000000000
r0.9980267284282717 !

#480000000000
r0.9995065603657316 !

#490000000000
r1.000000000000000 !

#500000000000
r0.9995065603657315 !

#510000000000
r0.9980267284282714 !

#520000000000
r0.9955619646030799 !

#530000000000
r0.9921147013144777 !

#540000000000
r0.9876883405951375 !

#550000000000
r0.9822872507286884 !

#560000000000
r0.9759167619387471 !

#570000000000
r0.9685831611286307 !

#580000000000
r0.9602936856769426 !

#590000000000
r0.9510565162951531 !

#600000000000
r0.9408807689542249 !

#610000000000
r0.9297764858882508 !

#620000000000
r0.9177546256839804 !

#630000000000
r0.9048270524660187 !

#640000000000
r0.8910065241883671 !

#650000000000
r0.8763066800438628 !

#660000000000
r0.8607420270039430 !

#670000000000
r0.8443279255020144 !

#680000000000
r0.8270805742745613 !

#690000000000
r0.8090169943749470 !

#700000000000
r0.7901550123756900 !

#710000000000
r0.7705132427757889 !

#720000000000
r0.7501110696304594 !

#730000000000
r0.7289686274214114 !

#740000000000
r0.7071067811865476 !

#750000000000
r0.6845471059286888 !

#760000000000
r0.6613118653236522 !

#770000000000
r0.6374239897486902 !

#780000000000
r0.6129070536529772 !

#790000000000
r0.5877852522924739 !

#800000000000
r0.5620833778521316 !

#810000000000
r0.5358267949789978 !

#820000000000
r0.5090414157503726 !

#830000000000
r0.4817536741017168 !

#840000000000
r0.4539904997395485 !

#850000000000
r0.4257792915650745 !

#860000000000
r0.3971478906347827 !

#870000000000
r0.3681245526846802 !

#880000000000
r0.3387379202452938 !

#890000000000
r0.3090169943749501 !

#900000000000
r0.2789911060392321 !

#910000000000
r0.2486898871648578 !

#920000000000
r0.2181432413965458 !

#930000000000
r0.1873813145857281 !

#940000000000
r0.1564344650402345 !

#950000000000
r0.1253332335643081 !

#960000000000
r0.09410831331851832 !

#970000000000
r0.06279051952931758 !

#980000000000
r0.03141075907813268 !

#990000000000
r4.563356778415361e-15 !

#1000000000000
r-0.03141075907812355 !

#1010000000000
r-0.06279051952930846 !

#1020000000000
r-0.09410831331850925 !

#1030000000000
r-0.1253332335642990 !

#1040000000000
r-0.1564344650402255 !

#1050000000000
r-0.1873813145857191 !

#1060000000000
r-0.2181432413965369 !

#1070000000000
r-0.2486898871648490 !

#1080000000000
r-0.2789911060392233 !

#1090000000000
r-0.3090169943749414 !

#1100000000000
r-0.3387379202452853 !

#1110000000000
r-0.3681245526846717 !

#1120000000000
r-0.3971478906347743 !

#1130000000000
r-0.4257792915650663 !

#1140000000000
r-0.4539904997395403 !

#1150000000000
r-0.4817536741017088 !

#1160000000000
r-0.5090414157503648 !

#1170000000000
r-0.5358267949789900 !

#1180000000000
r-0.5620833778521240 !

#1190000000000
r-0.5877852522924666 !

#1200000000000
r-0.6129070536529699 !

#1210000000000
r-0.6374239897486832 !

#1220000000000
r-0.6613118653236454 !

#1230000000000
r-0.6845471059286822 !

#1240000000000
r-0.7071067811865411 !

#1250000000000
r-0.7289686274214052 !

#1260000000000
r-0.7501110696304534 !

#1270000000000
r-0.7705132427757831 !

#1280000000000
r-0.7901550123756844 !

#1290000000000
r-0.8090169943749416 !

#1300000000000
r-0.8270805742745562 !

#1310000000000
r-0.8443279255020095 !

#1320000000000
r-0.8607420270039383 !

#1330000000000
r-0.8763066800438585 !

#1340000000000
r-0.8910065241883629 !

#1350000000000
r-0.9048270524660148 !

#1360000000000
r-0.9177546256839767 !

#1370000000000
r-0.9297764858882472 !

#1380000000000
r-0.9408807689542216 !

#1390000000000
r-0.9510565162951500 !

#1400000000000
r-0.9602936856769397 !

#1410000000000
r-0.9685831611286281 !

#1420000000000
r-0.9759167619387448 !

#1430000000000
r-0.9822872507286864 !

#1440000000000
r-0.9876883405951358 !

#1450000000000
r-0.9921147013144762 !

#1460000000000
r-0.9955619646030788 !

#1470000000000
r-0.9980267284282708 !

#1480000000000
r-0.9995065603657312 !

#1490000000000
r-1.000000000000000 !

#1500000000000
r-0.9995065603657319 !

#1510000000000
r-0.9980267284282724 !

#1520000000000
r-0.9955619646030813 !

#1530000000000
r-0.9921147013144797 !

#1540000000000
r-0.9876883405951400 !

#1550000000000
r-0.9822872507286914 !

#1560000000000
r-0.9759167619387507 !

#1570000000000
r-0.9685831611286349 !

#1580000000000
r-0.9602936856769473 !

#1590000000000
r-0.9510565162951583 !

#1600000000000
r-0.9408807689542307 !

#1610000000000
r-0.9297764858882571 !

#1620000000000
r-0.9177546256839875 !

#1630000000000
r-0.9048270524660263 !

#1640000000000
r-0.8910065241883752 !

#1650000000000
r-0.8763066800438715 !

#1660000000000
r-0.8607420270039521 !

#1670000000000
r-0.8443279255020241 !

#1680000000000
r-0.8270805742745714 !

#1690000000000
r-0.8090169943749574 !

#1700000000000
r-0.7901550123757010 !

#1710000000000
r-0.7705132427758004 !

#1720000000000
r-0.7501110696304711 !

#1730000000000
r-0.7289686274214237 !

#1740000000000
r-0.7071067811865602 !

#1750000000000
r-0.6845471059287019 !

#1760000000000
r-0.6613118653236656 !

#1770000000000
r-0.6374239897487040 !

#1780000000000
r-0.6129070536529913 !

#1790000000000
r-0.5877852522924883 !

#1800000000000
r-0.5620833778521463 !

#1810000000000
r-0.5358267949790129 !

#1820000000000
r-0.5090414157503880 !

#1830000000000
r-0.4817536741017324 !

#1840000000000
r-0.4539904997395644 !

#1850000000000
r-0.4257792915650907 !

#1860000000000
r-0.3971478906347991 !

#1870000000000
r-0.3681245526846968 !

#1880000000000
r-0.3387379202453106 !

#1890000000000
r-0.3090169943749670 !

#1900000000000
r-0.2789911060392493 !

#1910000000000
r-0.2486898871648751 !

#1920000000000
r-0.2181432413965632 !

#1930000000000
r-0.1873813145857456 !

#1940000000000
r-0.1564344650402522 !

#1950000000000
r-0.1253332335643258 !

#1960000000000
r-0.09410831331853614 !

#1970000000000
r-0.06279051952933543 !

#1980000000000
r-0.03141075907815055 !

