custom_2bit_adder_new_module/waveform.vcd
$date
     Feb 19, 2025       22:56:53
$end

$version
 SystemC 2.3.3-Accellera --- Dec 28 2022 21:47:10
$end

$timescale
     1 ps
$end

$scope module SystemC $end
$var wire    1  aaaaa  a0       $end
$var wire    1  aaaab  a1       $end
$var wire    1  aaaac  b0       $end
$var wire    1  aaaad  b1       $end
$var wire    1  aaaae  cin       $end
$var wire    1  aaaaf  sum0       $end
$var wire    1  aaaag  sum1       $end
$var wire    1  aaaah  carry_out       $end
$upscope $end
$enddefinitions  $end

$comment
All initial values are dumped below at time 0 sec = 0 timescale units.
$end

$dumpvars
0aaaaa
0aaaab
0aaaac
0aaaad
0aaaae
0aaaaf
0aaaag
0aaaah
$end

#15000
1aaaae
1aaaaf

#20000
1aaaad
0aaaae
0aaaaf
1aaaag

#25000
1aaaae
1aaaaf

#30000
1aaaac
0aaaad
0aaaae
0aaaag

#35000
1aaaae
0aaaaf
1aaaag

#40000
1aaaad
0aaaae
1aaaaf

#45000
1aaaae
0aaaaf
0aaaag
1aaaah

#50000
1aaaab
0aaaac
0aaaad
0aaaae
1aaaag
0aaaah

#55000
1aaaae
1aaaaf

#60000
1aaaad
0aaaae
0aaaaf
0aaaag
1aaaah

#65000
1aaaae
1aaaaf

#70000
1aaaac
0aaaad
0aaaae
1aaaag
0aaaah

#75000
1aaaae
0aaaaf
0aaaag
1aaaah

#80000
1aaaad
0aaaae
1aaaaf

#85000
1aaaae
0aaaaf
1aaaag

#90000
1aaaaa
0aaaab
0aaaac
0aaaad
0aaaae
1aaaaf
0aaaag
0aaaah

#95000
1aaaae
0aaaaf
1aaaag

#100000
1aaaad
0aaaae
1aaaaf

#105000
1aaaae
0aaaaf
0aaaag
1aaaah

#110000
1aaaac
0aaaad
0aaaae
1aaaag
0aaaah

#115000
1aaaae
1aaaaf

#120000
1aaaad
0aaaae
0aaaaf
0aaaag
1aaaah

#125000
1aaaae
1aaaaf

#130000
1aaaab
0aaaac
0aaaad
0aaaae
1aaaag
0aaaah

#135000
1aaaae
0aaaaf
0aaaag
1aaaah

#140000
1aaaad
0aaaae
1aaaaf

#145000
1aaaae
0aaaaf
1aaaag

#150000
1aaaac
0aaaad
0aaaae
0aaaag

#155000
1aaaae
1aaaaf

#160000
1aaaad
0aaaae
0aaaaf
1aaaag

#165000
1aaaae
1aaaaf

